%YAML 1.1
%TAG !u! tag:unity3d.com,2011:
--- !u!1 &6699441769225659409
GameObject:
  m_ObjectHideFlags: 0
  m_CorrespondingSourceObject: {fileID: 0}
  m_PrefabInstance: {fileID: 0}
  m_PrefabAsset: {fileID: 0}
  serializedVersion: 6
  m_Component:
  - component: {fileID: 6699441769225631857}
  m_Layer: 0
  m_Name: PaillasseEvier
  m_TagString: Untagged
  m_Icon: {fileID: 0}
  m_NavMeshLayer: 0
  m_StaticEditorFlags: 0
  m_IsActive: 1
--- !u!4 &6699441769225631857
Transform:
  m_ObjectHideFlags: 0
  m_CorrespondingSourceObject: {fileID: 0}
  m_PrefabInstance: {fileID: 0}
  m_PrefabAsset: {fileID: 0}
  m_GameObject: {fileID: 6699441769225659409}
  m_LocalRotation: {x: -0.7071068, y: 0, z: -0, w: 0.7071068}
  m_LocalPosition: {x: -0.04084877, y: 0.67683905, z: 0.01233839}
  m_LocalScale: {x: 1, y: 1, z: 1}
  m_Children:
  - {fileID: 5827331085455703715}
  m_Father: {fileID: 0}
  m_RootOrder: 0
  m_LocalEulerAnglesHint: {x: 0, y: 0, z: 0}
--- !u!1001 &6092891638018225800
PrefabInstance:
  m_ObjectHideFlags: 0
  serializedVersion: 2
  m_Modification:
    m_TransformParent: {fileID: 6699441769225631857}
    m_Modifications:
    - target: {fileID: 211325480078218097, guid: 3efd005b2196d22408f25c86c65baa60,
        type: 3}
      propertyPath: m_Name
      value: PaillaisseEvier
      objectReference: {fileID: 0}
    - target: {fileID: 310917796289284139, guid: 3efd005b2196d22408f25c86c65baa60,
        type: 3}
      propertyPath: m_LocalPosition.x
      value: 0.049
      objectReference: {fileID: 0}
    - target: {fileID: 310917796289284139, guid: 3efd005b2196d22408f25c86c65baa60,
        type: 3}
      propertyPath: m_LocalPosition.y
      value: 0
      objectReference: {fileID: 0}
    - target: {fileID: 310917796289284139, guid: 3efd005b2196d22408f25c86c65baa60,
        type: 3}
      propertyPath: m_LocalPosition.z
      value: -0.686
      objectReference: {fileID: 0}
    - target: {fileID: 310917796289284139, guid: 3efd005b2196d22408f25c86c65baa60,
        type: 3}
      propertyPath: m_LocalRotation.x
      value: 0.7071068
      objectReference: {fileID: 0}
    - target: {fileID: 310917796289284139, guid: 3efd005b2196d22408f25c86c65baa60,
        type: 3}
      propertyPath: m_LocalRotation.y
      value: -0
      objectReference: {fileID: 0}
    - target: {fileID: 310917796289284139, guid: 3efd005b2196d22408f25c86c65baa60,
        type: 3}
      propertyPath: m_LocalRotation.z
      value: 0
      objectReference: {fileID: 0}
    - target: {fileID: 310917796289284139, guid: 3efd005b2196d22408f25c86c65baa60,
        type: 3}
      propertyPath: m_LocalRotation.w
      value: 0.7071068
      objectReference: {fileID: 0}
    - target: {fileID: 310917796289284139, guid: 3efd005b2196d22408f25c86c65baa60,
        type: 3}
      propertyPath: m_RootOrder
      value: 0
      objectReference: {fileID: 0}
    - target: {fileID: 310917796289284139, guid: 3efd005b2196d22408f25c86c65baa60,
        type: 3}
      propertyPath: m_LocalEulerAnglesHint.x
      value: 0
      objectReference: {fileID: 0}
    - target: {fileID: 310917796289284139, guid: 3efd005b2196d22408f25c86c65baa60,
        type: 3}
      propertyPath: m_LocalEulerAnglesHint.y
      value: 0
      objectReference: {fileID: 0}
    - target: {fileID: 310917796289284139, guid: 3efd005b2196d22408f25c86c65baa60,
        type: 3}
      propertyPath: m_LocalEulerAnglesHint.z
      value: 0
      objectReference: {fileID: 0}
    - target: {fileID: 310917796289284139, guid: 3efd005b2196d22408f25c86c65baa60,
        type: 3}
      propertyPath: m_LocalScale.y
      value: 1.0000002
      objectReference: {fileID: 0}
    - target: {fileID: 310917796289284139, guid: 3efd005b2196d22408f25c86c65baa60,
        type: 3}
      propertyPath: m_LocalScale.z
      value: 1.0000002
      objectReference: {fileID: 0}
    m_RemovedComponents: []
  m_SourcePrefab: {fileID: 100100000, guid: 3efd005b2196d22408f25c86c65baa60, type: 3}
--- !u!4 &5827331085455703715 stripped
Transform:
  m_CorrespondingSourceObject: {fileID: 310917796289284139, guid: 3efd005b2196d22408f25c86c65baa60,
    type: 3}
  m_PrefabInstance: {fileID: 6092891638018225800}
  m_PrefabAsset: {fileID: 0}
