%YAML 1.1
%TAG !u! tag:unity3d.com,2011:
--- !u!114 &11400000
MonoBehaviour:
  m_ObjectHideFlags: 0
  m_CorrespondingSourceObject: {fileID: 0}
  m_PrefabInstance: {fileID: 0}
  m_PrefabAsset: {fileID: 0}
  m_GameObject: {fileID: 0}
  m_Enabled: 1
  m_EditorHideFlags: 0
  m_Script: {fileID: 11500000, guid: 6a4bc3670d74a404596c02341a581000, type: 3}
  m_Name: 10F38309-6271-49AB-A2C3-EBD21C0C50F2
  m_EditorClassIdentifier: 
  objectName: Play_Labo_Room_Tone
  id: 2983988087
  guid: 10F38309-6271-49AB-A2C3-EBD21C0C50F2
