%YAML 1.1
%TAG !u! tag:unity3d.com,2011:
--- !u!114 &11400000
MonoBehaviour:
  m_ObjectHideFlags: 0
  m_CorrespondingSourceObject: {fileID: 0}
  m_PrefabInstance: {fileID: 0}
  m_PrefabAsset: {fileID: 0}
  m_GameObject: {fileID: 0}
  m_Enabled: 1
  m_EditorHideFlags: 0
  m_Script: {fileID: 11500000, guid: 6a4bc3670d74a404596c02341a581000, type: 3}
  m_Name: BB08D4BB-497E-4377-BF52-B0C9F18DBD20
  m_EditorClassIdentifier: 
  objectName: Play_Temple_Chimes
  id: 1371242783
  guid: BB08D4BB-497E-4377-BF52-B0C9F18DBD20
